%YAML 1.1
%TAG !u! tag:unity3d.com,2011:
--- !u!114 &11400000
MonoBehaviour:
  m_ObjectHideFlags: 0
  m_CorrespondingSourceObject: {fileID: 0}
  m_PrefabInstance: {fileID: 0}
  m_PrefabAsset: {fileID: 0}
  m_GameObject: {fileID: 0}
  m_Enabled: 1
  m_EditorHideFlags: 0
  m_Script: {fileID: 11500000, guid: c0d4e188e6b9834458def3de26368b24, type: 3}
  m_Name: MoneyLadderModel
  m_EditorClassIdentifier: 
  storable: 0
  immutable: 0
  dataProtected: 0
  data:
    _name: MoneyLadder
    _guid: 448bd17d-337d-4645-b595-b10e8739e25f
    _value: 0
